…
tibble(
 lat = scan(here::here("data/lats.txt")),
 lon = scan(here::here("data/lons.txt")),
 trend = scan(here::here("data/trends.txt"))
) -> tornado


You very likely never directly use the `base::scan()` function, but it's handy here since we just have files of doubles with each value separated by whitespace. Now, let's see what we have:

```r
tornado
## # A tibble: 30,000 x 3
## lat lon trend
## 
## 1 0.897 -180. 0
## 2 0.897 -179. 0
## 3 0.897 -178. 0
## 4 0.897 -176. 0
## 5 0.897 -175. 0
## 6 0.897 -174. 0
## 7 0.897 -173. 0
## 8 0.897 -172. 0
## 9 0.897 -170. 0
## 10 0.897 -169. 0
## # … with 29,990 more rows
…
