…
Our momentum strategy did not grow as much as a pure buy-hold strategy. Let’s check some summary statistics by using `tq_performance()` and `table.Stats`.

```
strat_returns %>% 
 ungroup() %>% 
 select(date, strat_returns, bench_returns) %>%
 gather(strats, returns, -date) %>% 
 group_by(strats) %>% 
 tq_performance(Ra = returns,
 performance_fun = table.Stats) %>% 
 gather(stat, value, -strats)
```

```
# A tibble: 32 x 3
# Groups: strats [2]
 strats stat value
 
 1 strat_returns ArithmeticMean 0.0056
 2 bench_returns ArithmeticMean 0.0064
 3 strat_returns GeometricMean 0.0052
 4 bench_returns GeometricMean 0.0059
 5 strat_returns Kurtosis 1.18 
 6 bench_returns Kurtosis 2.57 
 7 strat_returns LCLMean(0.95) 0.0016
 8 bench_returns LCLMean(0.95) 0.0018
 9 strat_returns Maximum 0.0834
10 bench_returns Maximum 0.0876
# … with 22 more rows
```
Thus far, our strategy seems inferior to buy-hold. Let’s check the max drawdowns with the `table.DownsideRisk` function.

```
strat_returns %>% 
 ungroup() %>% 
 select(date, strat_returns, bench_returns) %>%
 gather(strats, returns, -date) %>% 
 group_by(strats) %>% 
 tq_performance(Ra = returns,
 performance_fun = table.DownsideRisk) %>% 
 gather(stat, value, -strats)
```

```
# A tibble: 22 x 3
# Groups: strats [2]
 strats stat value
 
 1 strat_returns DownsideDeviation(0%) 0.0178
 2 bench_returns DownsideDeviation(0%) 0.0213
 3 strat_returns DownsideDeviation(MAR=10%) 0.0217
 4 bench_returns DownsideDeviation(MAR=10%) 0.025 
 5 strat_returns DownsideDeviation(Rf=0%) 0.0178
 6 bench_returns DownsideDeviation(Rf=0%) 0.0213
 7 strat_returns GainDeviation 0.0173
 8 bench_returns GainDeviation 0.0176
 9 strat_returns HistoricalES(95%) -0.0611
10 bench_returns HistoricalES(95%) -0.0727
# … with 12 more rows
```
…
