…
```

Let’s *widen* it, which will leave us with one row for each `id`.

```
widen_panel(wages)

```

```
# A tibble: 595 x 74
 id fem ed blk exp_1 wks_1 occ_1 ind_1 south_1 smsa_1 ms_1
 
 1 1 0 9 0 3 32 0 0 1 0 1
 2 2 0 11 0 30 34 1 0 0 0 1
 3 3 0 12 0 6 50 1 1 0 0 1
 4 4 1 10 1 31 52 1 0 0 1 0
 5 5 0 16 0 10 50 1 0 0 0 1
 6 6 0 12 0 26 44 1 1 0 1 1
 7 7 0 12 0 15 46 1 0 0 0 1
 8 8 0 10 0 23 51 1 1 1 0 1
 9 9 0 16 0 3 50 0 0 1 1 1
10 10 0 16 0 3 49 0 0 1 1 1
# ... with 585 more rows, and 63 more variables: union_1 ,
# lwage_1 , wage_1 , exp_2 , wks_2 , occ_2 ,
# ind_2 , south_2 , smsa_2 , ms_2 , union_2 ,
# lwage_2 , wage_2 , exp_3 , wks_3 , occ_3 ,
# ind_3 , south_3 , smsa_3 , ms_3 , union_3 ,
# lwage_3 , wage_3 , exp_4 , wks_4 , occ_4 ,
# ind_4 , south_4 , smsa_4 , ms_4 , union_4 ,
# lwage_4 , wage_4 , exp_5 , wks_5 , occ_5 ,
# ind_5 , south_5 , smsa_5 , ms_5 , union_5 ,
…
```

Notice that for variables that vary over time, there is now a column for eachwave.

Going from wide to long is a bit more complicated because you need to automatethe process of knowing how many waves there are, which variables change overtime, and how the time-varying variables are labeled to reflect the time ofthe measurement. We’ll use another example dataset from this package, called`teen_poverty`, that starts in the wide format.

```
data("teen_poverty")
teen_poverty

```

```
# A tibble: 1,151 x 28
 id pov1 mother1 spouse1 inschool1 hours1 pov2 mother2 spouse2
 
 1 22 1 0 0 1 21 0 0 0
 2 75 0 0 0 1 8 0 0 0
 3 92 0 0 0 1 30 0 0 0
 4 96 0 0 0 0 19 1 1 0
 5 141 0 0 0 1 0 0 0 0
 6 161 0 0 0 1 0 0 0 0
 7 220 0 0 0 1 6 0 0 0
 8 229 0 0 0 1 0 1 0 0
 9 236 0 0 0 1 0 0 0 0
10 240 0 0 0 1 18 1 0 0
# ... with 1,141 more rows, and 19 more variables: inschool2 ,
# hours2 , pov3 , mother3 , spouse3 ,
# inschool3 , hours3 , pov4 , mother4 ,
# spouse4 , inschool4 , hours4 , age , black ,
# pov5 , mother5 , spouse5 , inschool5 ,
# hours5 
…
