…
best3 <- male_100 %>%
 select(X2, X4) %>% 
 transmute(timing = X2, runner = X4) %>%
 mutate(timing = gsub("A", "", timing),
 timing = as.numeric(timing)) %>%
 filter(runner %in% c("Usain Bolt", "Asafa Powell", "Yohan Blake")) %>%
 mutate_if(is.character, as.factor) %>%
 droplevels
best3$runner <- fct_reorder(best3$runner, best3$timing)
best3
```

```
## # A tibble: 273 x 2
## timing runner 
## 
## 1 9.58 Usain Bolt 
## 2 9.63 Usain Bolt 
## 3 9.69 Usain Bolt 
## 4 9.69 Yohan Blake 
## 5 9.72 Usain Bolt 
## 6 9.72 Asafa Powell
## 7 9.74 Asafa Powell
## 8 9.75 Yohan Blake 
## 9 9.75 Yohan Blake 
## 10 9.76 Usain Bolt 
## # … with 263 more rows
```
…
