…
male_100 <- male_100 %>%
 select(X2, X4) %>% 
 transmute(timing = X2, runner = X4) %>%
 mutate(timing = gsub("A", "", timing),
 timing = as.numeric(timing)) %>%
 filter(runner %in% c("Usain Bolt", "Asafa Powell", "Yohan Blake",
 "Justin Gatlin", "Maurice Greene", "Tyson Gay")) %>%
 mutate_if(is.character, as.factor) %>%
 droplevels
male_100
```

```
## # A tibble: 520 x 2
## timing runner 
## 
## 1 9.58 Usain Bolt 
## 2 9.63 Usain Bolt 
## 3 9.69 Usain Bolt 
## 4 9.69 Tyson Gay 
## 5 9.69 Yohan Blake 
## 6 9.71 Tyson Gay 
## 7 9.72 Usain Bolt 
## 8 9.72 Asafa Powell 
## 9 9.74 Asafa Powell 
## 10 9.74 Justin Gatlin
## # … with 510 more rows
```
…
