…
We observe that some of the timings have an “A” against the time. The Wikipedia page Athletics abbreviations informs us that this indicates a mark set at altitude. We simply remove the “A” and also convert the variable *timing* into a numeric variable.

```
male_100 <- male_100 %>%
 mutate(timing = gsub("A", "", timing),
 timing = as.numeric(timing))
male_100
```

```
## # A tibble: 3,178 x 2
## timing runner 
## 
## 1 9.58 Usain Bolt 
## 2 9.63 Usain Bolt 
## 3 9.69 Usain Bolt 
## 4 9.69 Tyson Gay 
## 5 9.69 Yohan Blake 
## 6 9.71 Tyson Gay 
## 7 9.72 Usain Bolt 
## 8 9.72 Asafa Powell 
## 9 9.74 Asafa Powell 
## 10 9.74 Justin Gatlin
## # ... with 3,168 more rows
```
…
```
## [1] 328
```

```
runner_cnt <- male_100 %>%
 group_by(runner) %>%
 summarise(n_rec = n()) %>%
 arrange(desc(n_rec))
runner_cnt
```

```
## # A tibble: 328 x 2
## runner n_rec
## 
## 1 Asafa Powell 144
## 2 Mike Rodgers 101
## 3 Justin Gatlin 98
## 4 Maurice Greene 83
## 5 Nesta Carter 73
## 6 Usain Bolt 71
## 7 Kim Collins 68
## 8 Tyson Gay 67
## 9 Ato Boldon 65
## 10 Frank Fredericks 62
## # ... with 318 more rows
```
…
