…
```

### You Said This Is A Post With R Code

Very true! We’ll get to that in a minute.

Going with Couchbase introduced a different problem: there’s almost no R support for Couchbase. Sure, Couchbase has a gnarly, two-year old, raw `httr::`-prefixed bit of a tutorial post but that’s not really as cool as if there were a `library(couchbase)`. I mean, you can check GitUgh or CRAN or a more general search yourself if you’d like but it’s going to come up bupkis.

If you were expecting a big reveal, right now, that I’ve got a feature-packed, full R Couchbase package ready to roll…you didn’t actually read the title of the post. What I do have is a set of functions that — given server/connection metadata, a bucket, a full text index, and a query — will return all matching documents (I still do not like that term for “record”) for said set of parameters:

```
# function code is in: https://paste.sr.ht/~hrbrmstr/051f5d5400644952a3ad2cf8664b84e2cbb9ac6b

cb_fts("domino's", "all", "ripe")
## # A tibble: 120 x 9
## admin_c country descr inetnum mnt_by netname status tech_c notify 
## 
## 1 DUMY-RIPE FR OPEN IP DOMINO'S PIZZA 79.141.8.44 - 79.141.8.… ALPHALINK-… OPEN-IP ASSIGNED… DUMY-R… NA 
## 2 DUMY-RIPE NL Domino's Pizza TILBURG 62.21.176.160 - 62.21.1… AS286-MNT OTS2634… ASSIGNED… DUMY-R… [email protected] 
## 3 DUMY-RIPE NL Domino's Pizza EINDHOVEN 62.132.252.168 - 62.132… AS286-MNT OTS2270… ASSIGNED… DUMY-R… [email protected] 
## 4 DUMY-RIPE NL Domino's Pizza SPYKENISSE 194.123.233.232 - 194.1… AS286-MNT OTS69259 ASSIGNED… DUMY-R… [email protected] 
## 5 DUMY-RIPE NL Domino's AMSTERDAM 37.74.38.188 - 37.74.38… AS286-MNT OTS6103… ASSIGNED… DUMY-R… [email protected]…
## 6 DUMY-RIPE NL Domino's Pizza VOORSCHOTEN 92.66.116.136 - 92.66.1… AS286-MNT OTS1914… ASSIGNED… DUMY-R… [email protected] 
## 7 DUMY-RIPE NL Domino's Pizza Doetinchem… 212.241.42.136 - 212.24… AS286-MNT OTS2301… ASSIGNED… DUMY-R… [email protected] 
## 8 DUMY-RIPE NL Domino's Pizza AMSTERDAM 194.120.45.224 - 194.12… AS286-MNT OTS82906 ASSIGNED… DUMY-R… [email protected] 
## 9 DUMY-RIPE NL Domino's Pizza [Woerden] … 62.41.228.80 - 62.41.22… AS286-MNT OTS2024… ASSIGNED… DUMY-R… [email protected] 
## 10 DUMY-RIPE NL Domino's Pizza GRONINGEN 188.203.128.0 - 188.203… AS286-MNT OTS3767… ASSIGNED… DUMY-R… [email protected]…
## # … with 110 more rows
…
