…
```
## Event log consisting of:
## 15214 events
## 846 traces
## 1050 cases
## 16 activities
## 15214 activity instances
## 
## # A tibble: 15,214 x 34
## case_id activity lifecycle resource timestamp age crp
## 
## 1 A ER Regi~ complete A 2014-10-22 11:15:41 85 NA
## 2 A Leucocy~ complete B 2014-10-22 11:27:00 NA NA
## 3 A CRP complete B 2014-10-22 11:27:00 NA 210
## 4 A LacticA~ complete B 2014-10-22 11:27:00 NA NA
## 5 A ER Tria~ complete C 2014-10-22 11:33:37 NA NA
## 6 A ER Seps~ complete A 2014-10-22 11:34:00 NA NA
## 7 A IV Liqu~ complete A 2014-10-22 14:03:47 NA NA
## 8 A IV Anti~ complete A 2014-10-22 14:03:47 NA NA
## 9 A Admissi~ complete D 2014-10-22 14:13:19 NA NA
## 10 A CRP complete B 2014-10-24 09:00:00 NA 1090
## # ... with 15,204 more rows, and 27 more variables: diagnose ,
## # diagnosticartastrup , diagnosticblood , diagnosticecg ,
## # diagnosticic , diagnosticlacticacid ,
## # diagnosticliquor , diagnosticother , diagnosticsputum ,
## # diagnosticurinaryculture , diagnosticurinarysediment ,
## # diagnosticxthorax , disfuncorg , hypotensie ,
## # hypoxie , infectionsuspected , infusion ,
## # lacticacid , leucocytes , oligurie ,
## # sirscritheartrate , sirscritleucos ,
…
