…
I ended up doing `install.pkgs(pkgs)` which was easy since I have a home CRAN mirror and use macOS (so binary package installs).

The presence of a `dbplyr` import does not mean a package implements a backend, so we have to load their namespaces and see if they have the core “tell” (i.e. they implement `sql_translate()`):

```
(map_df(pkgs, ~{
 tibble(
 pkg = .x,
 trans = loadNamespace(.x) %>%
 names() %>%
 keep(stri_detect_fixed, "sql_translate")
 )
}) -> xdf)
## # A tibble: 28 x 2
## pkg trans
## 
## 1 bigrquery sql_translate_env.BigQueryConnection
## 2 civis sql_translate_env.CivisConnection
## 3 dbplyr sql_translate_env.ACCESS
## 4 dbplyr sql_translate_env.Oracle
## 5 dbplyr sql_translate_env.SQLiteConnection
## 6 dbplyr sql_translate_env.Impala
## 7 dbplyr sql_translate_env.OdbcConnection
## 8 dbplyr sql_translate_env.MySQLConnection
## 9 dbplyr sql_translate_env.PqConnection
## 10 dbplyr sql_translate_env.PostgreSQLConnection
## # … with 18 more rows
…
 map_df(fs, ~{
 tibble(ƒ = .x, src = paste0(as.character(body(part[[.x]])), collapse = "; ")) %>% # this gets the body of the function
 filter(!stri_detect_fixed(src, "stop(")) %>%
 filter(stri_detect_regex(ƒ, "[[:alpha:]]")) %>% # and we rly don't care about maths
 select(-src)
 })
 })
 })) %>%
 unnest(ƒ) %>%
 mutate(trans = stri_replace_first_fixed(trans, "sql_translate_env.", "")) -> xdf)
## # A tibble: 1,318 x 3
## pkg trans ƒ
## 
## 1 bigrquery BigQueryConnection median
## 2 bigrquery BigQueryConnection gsub
## 3 bigrquery BigQueryConnection as.logical
## 4 bigrquery BigQueryConnection is.null
## 5 bigrquery BigQueryConnection case_when
## 6 bigrquery BigQueryConnection is.na
## 7 bigrquery BigQueryConnection if_else
## 8 bigrquery BigQueryConnection str_replace_all
## 9 bigrquery BigQueryConnection as.integer
## 10 bigrquery BigQueryConnection as.character
## # … with 1,308 more rows
…
