…
Next, we perform a similar routine to the previous blogs and combine the two datasets into one dataset which will be used to build the animation:

```
# A tibble: 66 x 5
 row column value tstep celltype
 
 1 1 1 ID a header 
 2 2 1 1 a id 
 3 3 1 2 a id 
 4 4 1 3 a id 
 5 5 1 4 a id 
 6 6 1 5 a id 
 7 7 1 6 a id 
 8 8 1 7 a id 
 9 9 1 8 a id 
10 10 1 9 a id 
# … with 56 more rows
```
…
