…
area_pct
## # A tibble: 47 x 5
## area state lat lon pct
## 
## 1 McAllen-Edinburg-Mission, TX TX 26.2 -98.1 0.102
## 2 Houston-The Woodlands-Sugar Land, TX TX 29.6 -95.8 0.087
## 3 Santa Maria-Santa Barbara, CA CA 34.4 -120. 0.081
## 4 Las Vegas-Henderson-Paradise, NV NV 36.1 -115. 0.08 
## 5 Los Angeles-Long Beach-Anaheim, CA CA 33.9 -118. 0.075
## 6 Miami-Fort Lauderdale-West Palm Beach, FL FL 26.6 -80.1 0.073
## 7 Dallas-Fort Worth-Arlington, TX TX 33.3 -98.4 0.069
## 8 Washington-Arlington-Alexandria, DC-VA-MD-… WV 39.2 -81.7 0.068
## 9 Bridgeport-Stamford-Norwalk, CT CT 41.3 -73.1 0.067
## 10 San Jose-Sunnyvale-Santa Clara, CA CA 37.4 -122. 0.065
## # … with 37 more rows
…
