…
all_funds_ret <- all_funds %>% 
 mutate(returns = map(info, annual_ret)) %>% 
 select(funds, returns) %>% 
 unnest %>% 
 arrange(-annualised_ret) %>% 
 filter(!is.na(TER))

all_funds_ret
```

```
## # A tibble: 1,182 x 10
## funds fund_name TER cash_value_5yrs volatility annualised_ret
## 
## 1 South Af~ Absa Propert~ 1.72 175. 19.1 11.9 
## 2 South Af~ Long Beach F~ 1.53 167. 14.9 10.9 
## 3 South Af~ Nedgroup Inv~ 1.36 166. 10.7 10.7 
## 4 South Af~ Nedgroup Inv~ 1.93 162. 10.7 10.1 
## 5 South Af~ Momentum Fin~ 1.46 161. 11.1 9.94
## 6 South Af~ Fairtree Fle~ 0.900 160. 3.08 9.82
## 7 South Af~ Satrix FINI ~ 0.410 159. 14.1 9.78
## 8 South Af~ Fairtree Equ~ 1.16 158. 12.7 9.58
## 9 South Af~ *Pan-African~ 0.770 158. 3.80 9.51
## 10 South Af~ Sesfikile BC~ 1.28 156. 11.5 9.37
## # ... with 1,172 more rows, and 4 more variables: risk_adj_cagr ,
## # sharpe , inflation_adj_cagr , reg_28_compliant 
```
…
