…
First, let’s split the training data again, using the `mc_cv()` function from `{rsample}` package.This function implements Monte Carlo cross-validation:

```
validation_data <- mc_cv(housing_train, prop = 0.9, times = 30)
```

What does `validation_data` look like?

```
validation_data
```

```
## # # Monte Carlo cross-validation (0.9/0.1) with 30 resamples 
## # A tibble: 30 x 2
## splits id 
## 
## 1 Resample01
## 2 Resample02
## 3 Resample03
## 4 Resample04
## 5 Resample05
## 6 Resample06
## 7 Resample07
## 8 Resample08
## 9 Resample09
## 10 Resample10
## # ... with 20 more rows
```
…
