…
So yeah, useless in that state. The first column actually is composed of 3 columns, merged together,and instead of having one column with the date, and another with the value, we have one columnper date. Some cleaning is necessary before using this data.

Let’s start with going from a wide to a long data set:

```
avia %>%
 select("unit,tra_meas,airp_pr\\time", contains("20")) %>%
 gather(date, passengers, -`unit,tra_meas,airp_pr\\time`)
```

The first line makes it possible to only select the columns that contain the string “20”, soselecting columns from 2000 onward. Then, using gather, I go from long to wide. The data lookslike this now:

```
## # A tibble: 117,070 x 3
## `unit,tra_meas,airp_pr\\time` date passengers
## 
## 1 FLIGHT,CAF_PAS,LU_ELLX_AT_LOWW 2018Q1 511 
## 2 FLIGHT,CAF_PAS,LU_ELLX_BE_EBBR 2018Q1 : 
## 3 FLIGHT,CAF_PAS,LU_ELLX_CH_LSGG 2018Q1 : 
## 4 FLIGHT,CAF_PAS,LU_ELLX_CH_LSZH 2018Q1 485 
## 5 FLIGHT,CAF_PAS,LU_ELLX_DE_EDDF 2018Q1 834 
## 6 FLIGHT,CAF_PAS,LU_ELLX_DE_EDDI 2018Q1 : 
## 7 FLIGHT,CAF_PAS,LU_ELLX_DE_EDDM 2018Q1 1095 
## 8 FLIGHT,CAF_PAS,LU_ELLX_DE_EDDR 2018Q1 : 
## 9 FLIGHT,CAF_PAS,LU_ELLX_DE_EDDT 2018Q1 : 
## 10 FLIGHT,CAF_PAS,LU_ELLX_DK_EKCH 2018Q1 : 
## # ... with 117,060 more rows
```

Now, let’s separate the first column into 3 columns:

```
avia %>%
 select("unit,tra_meas,airp_pr\\time", contains("20")) %>%
 gather(date, passengers, -`unit,tra_meas,airp_pr\\time`) %>%
 separate(col = `unit,tra_meas,airp_pr\\time`, into = c("unit", "tra_meas", "air_pr\\time"), sep = ",")
```

This separates the first column into 3 new columns, “unit”, “tra_meas” and “air_pr\time”. This stepis not necessary for the rest of the analysis, but might as well do it. The data looks like this now:

```
## # A tibble: 117,070 x 5
## unit tra_meas `air_pr\\time` date passengers
## 
## 1 FLIGHT CAF_PAS LU_ELLX_AT_LOWW 2018Q1 511 
## 2 FLIGHT CAF_PAS LU_ELLX_BE_EBBR 2018Q1 : 
## 3 FLIGHT CAF_PAS LU_ELLX_CH_LSGG 2018Q1 : 
## 4 FLIGHT CAF_PAS LU_ELLX_CH_LSZH 2018Q1 485 
## 5 FLIGHT CAF_PAS LU_ELLX_DE_EDDF 2018Q1 834 
## 6 FLIGHT CAF_PAS LU_ELLX_DE_EDDI 2018Q1 : 
## 7 FLIGHT CAF_PAS LU_ELLX_DE_EDDM 2018Q1 1095 
## 8 FLIGHT CAF_PAS LU_ELLX_DE_EDDR 2018Q1 : 
## 9 FLIGHT CAF_PAS LU_ELLX_DE_EDDT 2018Q1 : 
## 10 FLIGHT CAF_PAS LU_ELLX_DK_EKCH 2018Q1 : 
## # ... with 117,060 more rows
```
…
