…
`solutions_df` is a data frame with the order of the castles to visit in rows and the method usedin columns.

Click if you want to see the solutions


```
solutions_df
```

```
## # A tibble: 48 x 9
## identity random nearest_inserti… cheapest_insert… farthest_insert…
## 
## 1 1 10 37 44 15
## 2 2 11 17 37 27
## 3 36 4 22 17 29
## 4 33 9 47 40 38
## 5 6 45 16 27 41
## 6 44 43 43 15 19
## 7 37 16 13 18 5
## 8 17 47 21 34 46
## 9 22 22 14 7 12
## 10 47 13 45 20 23
## # ... with 38 more rows, and 4 more variables: arbitrary_insertion ,
## # nn , repetitive_nn , two_opt 
```
…
