…
Next we join this to v_rbt, trying as best we can to figure out how they join, and to account for any observations which can't be joined as cleanly. 'School_Year' and 'Route_Number' appear to be our main joining headers, but this join leaves out 'OPT_Code' for some observations. These observations are not represented in the correct school year. We take a guess, and assign these an OPT_Code based only on the route, hoping that things haven't changed from year to year.
`v_rbt %>% group_by(School_Year,Route_Number) %>% count %>% filter(n>1)`
## # A tibble: 27,712 x 3
## # Groups: School_Year, Route_Number [27,712]
## School_Year Route_Number n
## 
## 1 2015-2016 J510 2
## 2 2015-2016 J690 2
## 3 2015-2016 J700 2
## 4 2015-2016 J701 2
## 5 2015-2016 J702 2
## 6 2015-2016 J703 2
## 7 2015-2016 J704 2
## 8 2015-2016 J705 2
## 9 2015-2016 J706 2
## 10 2015-2016 J707 2
## # ... with 27,702 more rows

# There are 27712 School_Year, Route_Number combinations in v_rbt which appear more than once. Why is that?
#Some year/route combinations have more than one OPT_Code. Why?
#OPT_Code represents an organization in a specific location. Each Route/School_Year combination thus can serve multiple organizations in multiple locations.
#This is going to cause us some problems later on, since we will have bus level data with multiple organizations attached. It will probably require some summary operations.


v_joined <- iv_cleaned %>%
 left_join(v_rbt, by = c("School_Year", "Route_Number"))

#62 observations have no OPT_code after this join. Check if the Route_Numbers can be matched alone
iv_cleaned %>% anti_join(v_rbt, by = c("School_Year", "Route_Number")) %>%
 distinct(Route_Number) #59 routes
## # A tibble: 59 x 1
## Route_Number
## 
## 1 Z003 
## 2 T003 
## 3 T004 
## 4 Q8227 
## 5 T008 
## 6 T009 
## 7 Z001 
## 8 Z002 
## 9 Z004 
## 10 Z005 
## # ... with 49 more rows

#question: are all of these routes represented in the v_rbt, even if the year is wrong?
iv_cleaned %>% anti_join(v_rbt, by = c("School_Year", "Route_Number")) %>%
 inner_join(v_rbt, by = "Route_Number") %>% distinct(Route_Number) #39 routes can be filled by ignoring year. Check.
## # A tibble: 39 x 1
## Route_Number
## 
## 1 Z003 
## 2 T004 
## 3 T008 
## 4 T009 
## 5 Z001 
## 6 Z002 
## 7 Z004 
## 8 Z005 
## 9 X2353 
## 10 X9353 
## # ... with 29 more rows
…
