…
```
nodesDF$id <- as.numeric(rownames(nodesDF)) - 1
connections_df <-
 merge(connections,
 nodesDF,
 by.x = "to",
 by.y = "id",
 all = TRUE)
to_count_df <- count(connections_df, name)
arrange(to_count_df, desc(n))
```

```
## # A tibble: 712 x 2
## name n
## 
## 1 Angela Merkel 59
## 2 Andrea Nahles 40
## 3 Heiko Maas 38
## 4 Katarina Barley 38
## 5 Peter Altmaier 38
## 6 Wolfgang Schäuble 38
## 7 Wolfgang Kubicki 37
## 8 Hans-Peter Friedrich 34
## 9 Hermann Gröhe 34
## 10 Ursula von der Leyen 33
## # ... with 702 more rows
```
…
