…
pca_on_stations <- 
 recipe(~ ., data = training %>% select(starts_with("l14_"))) %>% 
 step_center(all_predictors()) %>% 
 step_scale(all_predictors()) %>%
 step_pca(all_predictors(), num_comp = 5) %>% 
 prep() %>% 
 juice()

pca_on_stations
```

```
## # A tibble: 5,698 x 5
## PC1 PC2 PC3 PC4 PC5
## 
## 1 1.37 4.41 0.347 0.150 0.631
## 2 1.86 4.50 0.618 0.161 0.523
## 3 2.03 4.50 0.569 0.0468 0.543
## 4 2.37 4.43 0.498 -0.209 0.559
## 5 2.37 4.13 0.422 -0.745 0.482
## 6 -15.7 1.23 0.0164 -0.180 1.04 
## 7 -21.2 0.771 -0.653 1.35 1.23 
## 8 -8.45 2.36 1.07 -0.143 0.404
## 9 3.04 4.30 0.555 -0.0476 0.548
## 10 2.98 4.45 0.409 -0.125 0.677
## # … with 5,688 more rows
```
…
