…
##### 4. `cor()` and `cor.test()` don’t provide visualisation methods out of the box

Tables are all very well, but it’s much easier to use graphics tovisually interrogate correlations. There are many other packages that dohelp with this, but in general they use a matrix or grid plot withcoloured cells to display correlations which are typically messy anddifficult to read.

#### Using `inspect_cor()` to calculate correlations

`inspect_cor()` attempts to address some of the issues above. Tocalculate correlations for the `storms` data, simply run

```
storms %>% inspect_cor()

```

```
## # A tibble: 45 x 6
## col_1 col_2 corr p_value lower upper
## 
## 1 pressure wind -0.942 0. -0.945 -0.940
## 2 hu_diameter pressure -0.842 0. -0.853 -0.831
## 3 hu_diameter wind 0.774 0. 0.758 0.788
## 4 hu_diameter ts_diameter 0.684 0. 0.663 0.704
## 5 ts_diameter pressure -0.683 0. -0.703 -0.663
## 6 ts_diameter wind 0.640 0. 0.617 0.662
## 7 ts_diameter lat 0.301 1.25e-73 0.266 0.335
## 8 day month -0.183 3.59e-76 -0.205 -0.161
## 9 hu_diameter lat 0.164 1.59e-22 0.127 0.201
## 10 ts_diameter month 0.139 1.67e-16 0.102 0.176
## # … with 35 more rows
…
