…
```

Then we use group_split to create individual tibbles for each group

```
group_split(split_test)

```

```
## [[1]]
## # A tibble: 120,835 x 19
## year month day dep_time sched_dep_time dep_delay arr_time
## 
## 1 2013 1 1 517 515 2 830
## 2 2013 1 1 554 558 -4 740
## 3 2013 1 1 555 600 -5 913
## 4 2013 1 1 558 600 -2 923
## 5 2013 1 1 559 600 -1 854
## 6 2013 1 1 601 600 1 844
## 7 2013 1 1 606 610 -4 858
## 8 2013 1 1 607 607 0 858
## 9 2013 1 1 608 600 8 807
## 10 2013 1 1 615 615 0 833
## # ... with 120,825 more rows, and 12 more variables: sched_arr_time ,
## # arr_delay , carrier , flight , tailnum ,
## # origin , dest , air_time , distance , hour ,
## # minute , time_hour 
## 
## [[2]]
## # A tibble: 111,279 x 19
## year month day dep_time sched_dep_time dep_delay arr_time
## 
## 1 2013 1 1 542 540 2 923
## 2 2013 1 1 544 545 -1 1004
## 3 2013 1 1 557 600 -3 838
## 4 2013 1 1 558 600 -2 849
## 5 2013 1 1 558 600 -2 853
## 6 2013 1 1 558 600 -2 924
## 7 2013 1 1 559 559 0 702
## 8 2013 1 1 606 610 -4 837
## 9 2013 1 1 611 600 11 945
## 10 2013 1 1 613 610 3 925
## # ... with 111,269 more rows, and 12 more variables: sched_arr_time ,
## # arr_delay , carrier , flight , tailnum ,
## # origin , dest , air_time , distance , hour ,
## # minute , time_hour 
## 
## [[3]]
## # A tibble: 104,662 x 19
## year month day dep_time sched_dep_time dep_delay arr_time
## 
## 1 2013 1 1 533 529 4 850
## 2 2013 1 1 554 600 -6 812
## 3 2013 1 1 557 600 -3 709
## 4 2013 1 1 558 600 -2 753
## 5 2013 1 1 559 600 -1 941
## 6 2013 1 1 600 600 0 851
## 7 2013 1 1 600 600 0 837
## 8 2013 1 1 602 610 -8 812
## 9 2013 1 1 602 605 -3 821
## 10 2013 1 1 623 610 13 920
## # ... with 104,652 more rows, and 12 more variables: sched_arr_time ,
## # arr_delay , carrier , flight , tailnum ,
## # origin , dest , air_time , distance , hour ,
## # minute , time_hour 
…
