…
We can fix that by separating the date column into `year` and `month` with the incredibly useful `separate()` function. We will run `separate(date, c("year", "month"), sep = "-", remove = FALSE)`. I use `remove = FALSE` because I want to keep the `date` column.

It’s not necessary, but for ease of viewing in this post, I’ll peek at just sectors that contain the word “Consumer”, by calling `filter(sector, str_detect("Consumer"))`.

```
sector_returns_2008_2018 %>%
 separate(date, c("year", "month"), sep = "-", remove = FALSE) %>% 
 group_by(year, sector) %>% 
 slice(1) %>% 
 filter(str_detect(sector, "Consumer"))
```

```
# A tibble: 22 x 6
# Groups: year, sector [22]
 sector date year month adjClose daily_return
 
 1 Consumer Discretionary 2008-01-02 2008 01 27.3 -0.0154 
 2 Consumer Staples 2008-01-02 2008 01 21.1 -0.0143 
 3 Consumer Discretionary 2009-01-02 2009 01 19.5 0.0489 
 4 Consumer Staples 2009-01-02 2009 01 18.5 0.0141 
 5 Consumer Discretionary 2010-01-04 2010 01 26.3 0.00770 
 6 Consumer Staples 2010-01-04 2010 01 20.9 0.00753 
 7 Consumer Discretionary 2011-01-03 2011 01 33.7 0.0117 
 8 Consumer Staples 2011-01-03 2011 01 23.6 0.00136 
 9 Consumer Discretionary 2012-01-03 2012 01 35.6 0.00842 
10 Consumer Staples 2012-01-03 2012 01 26.9 -0.000924
# … with 12 more rows
```
…
