…
Again, you'll need to be patient and wait for the `state` to be `SUCCEEDED` to retrieve the results.

```
get_query_results(qex_id, profile = "personal")
## # A tibble: 774 x 2
## requestip requestprocessingtime
## 
## 1 255.48.150.122 0.0000900
## 2 249.213.227.93 0.0000970
## 3 245.108.120.229 0.0000870
## 4 241.112.203.216 0.0000940
## 5 241.43.107.223 0.0000760
## 6 249.117.98.137 0.0000830
## 7 250.134.112.194 0.0000630
## 8 250.200.171.222 0.0000540
## 9 248.193.76.218 0.0000820
## 10 250.57.61.131 0.0000870
## # ... with 764 more rows
```
…
