…
We will provide an example illustrating how to use UCSCXenaTools to study the effect of expression of the *KRAS* gene on prognosis of Lung Adenocarcinoma (LUAD) patients. *KRAS* is a known driver gene in LUAD. We retrieve expression data for the *KRAS* gene and survival status data for LUAD patients from the TCGA and use these as input to a survival analysis, frequently used in cancer research.

### Download data

First we get information on all datasets in the TCGA LUAD cohort and store as `luad_cohort` object.

```
suppressMessages(library(UCSCXenaTools))
suppressMessages(library(dplyr))
luad_cohort = XenaData %>%
 filter(XenaHostNames == "tcgaHub") %>% # select TCGA Hub
 XenaScan("TCGA Lung Adenocarcinoma") # select LUAD cohort

luad_cohort
#> # A tibble: 27 x 17
#> XenaHosts XenaHostNames XenaCohorts XenaDatasets SampleCount DataSubtype
#> 
#> 1 https://… tcgaHub TCGA Lung … RABIT/separ… 467 Transcript…
#> 2 https://… tcgaHub TCGA Lung … RABIT/separ… 120 Transcript…
#> 3 https://… tcgaHub TCGA Lung … TCGA.LUAD.s… 151 DNA methyl…
#> 4 https://… tcgaHub TCGA Lung … TCGA.LUAD.s… 492 DNA methyl…
#> 5 https://… tcgaHub TCGA Lung … TCGA.LUAD.s… 516 copy numbe…
#> 6 https://… tcgaHub TCGA Lung … TCGA.LUAD.s… 543 somatic mu…
#> 7 https://… tcgaHub TCGA Lung … TCGA.LUAD.s… 237 protein ex…
#> 8 https://… tcgaHub TCGA Lung … TCGA.LUAD.s… 576 gene expre…
#> 9 https://… tcgaHub TCGA Lung … TCGA.LUAD.s… 60 miRNA matu…
#> 10 https://… tcgaHub TCGA Lung … TCGA.LUAD.s… 576 gene expre…
#> # … with 17 more rows, and 11 more variables: Label , Type ,
#> # AnatomicalOrigin , SampleType , Tags , ProbeMap ,
#> # LongTitle , Citation , Version , Unit ,
#> # Platform 
…
