…
For now, we’ll omit assessment periods with missing data, but we’ll return to the issue of missing data at the end of this demonstration.

```
curran_dat <- read_sav("CurranLong.sav") %>%
 select(id, occasion, read, homecog) %>%
 filter(complete.cases(.))
```

```
curran_dat
```

```
## # A tibble: 1,325 x 4
## id occasion read homecog
## 
## 1 22 0 2.1 13
## 2 22 1 3.9 13
## 3 34 0 2.1 9
## 4 34 1 2.9 9
## 5 34 2 4.5 9
## 6 34 3 4.5 9
## 7 58 0 2.3 9
## 8 58 1 4.5 9
## 9 58 2 4.2 9
## 10 58 3 4.6 9
## # ... with 1,315 more rows
```
…
