…
```
## # A tibble: 71 x 4
## date viz title path_post 
## 
## 1 2018-05-20 viz_map_bycomp~ An Analysis of Texas H~ /post/analysis-texas~
## 2 2018-05-20 viz_map_bycomp~ An Analysis of Texas H~ /post/analysis-texas~
## 3 2018-05-20 viz_n_bycomplv~ An Analysis of Texas H~ /post/analysis-texas~
## 4 2018-05-20 viz_n_bycomp-1~ An Analysis of Texas H~ /post/analysis-texas~
## 5 2018-05-20 viz_n_bycompco~ An Analysis of Texas H~ /post/analysis-texas~
## 6 2018-05-20 viz_n_bycompco~ An Analysis of Texas H~ /post/analysis-texas~
## 7 2018-05-20 viz_persons_st~ An Analysis of Texas H~ /post/analysis-texas~
## 8 2018-05-20 viz_persons_st~ An Analysis of Texas H~ /post/analysis-texas~
## 9 2018-05-20 viz_persons_st~ An Analysis of Texas H~ /post/analysis-texas~
## 10 2018-05-20 viz_persons_st~ An Analysis of Texas H~ /post/analysis-texas~
## # ... with 61 more rows
```
…
```
## # A tibble: 71 x 4
## title date path_post label_md 
## 
## 1 An Analysis of Tex~ 2018-05-20 /post/analysis-tex~ ![viz_map_bycomplvl_~
## 2 An Analysis of Tex~ 2018-05-20 /post/analysis-tex~ ![viz_map_bycomplvl_~
## 3 An Analysis of Tex~ 2018-05-20 /post/analysis-tex~ ![viz_n_bycomplvl-1.~
## 4 An Analysis of Tex~ 2018-05-20 /post/analysis-tex~ ![viz_n_bycomp-1.png~
## 5 An Analysis of Tex~ 2018-05-20 /post/analysis-tex~ ![viz_n_bycompcomplv~
## 6 An Analysis of Tex~ 2018-05-20 /post/analysis-tex~ ![viz_n_bycompcomplv~
## 7 An Analysis of Tex~ 2018-05-20 /post/analysis-tex~ ![viz_persons_stats_~
## 8 An Analysis of Tex~ 2018-05-20 /post/analysis-tex~ ![viz_persons_stats_~
## 9 An Analysis of Tex~ 2018-05-20 /post/analysis-tex~ ![viz_persons_stats_~
## 10 An Analysis of Tex~ 2018-05-20 /post/analysis-tex~ ![viz_persons_stats_~
## # ... with 61 more rows
```
…
