…
#### Issues

`get_issues()` will report the date, number, author and title of all the open issues.

```
myRepo$get_issues()
```

```
## # A tibble: 26 x 4
## date number author title 
## 
## 1 2019-06-20 133 aravindhebba~ Cook's distance chart threshold 
## 2 2018-12-27 129 aravindhebba~ Bonferroni outlier test 
## 3 2018-12-24 126 aravindhebba~ Heteroskedasticity corrected covariance~
## 4 2018-12-24 125 aravindhebba~ Test linear hypothesis 
## 5 2018-12-24 124 aravindhebba~ Ceres plot 
## 6 2018-12-22 123 aravindhebba~ Power transformations 
## 7 2018-12-22 122 aravindhebba~ Box Tidwell transformation 
## 8 2018-12-22 121 aravindhebba~ Box Cox transformation 
## 9 2018-12-21 120 aravindhebba~ Wald test 
## 10 2018-12-21 119 aravindhebba~ Reset test 
## # ... with 16 more rows
```
…
```
## [1] "82.83485"
```

### Stack Overflow

Questions tagged with the package name will be displayed from Stack Overflow.

```
get_so_questions("dplyr")
```

```
## # A tibble: 30 x 6
## date title owner answered views link 
## 
## 1 2019-07-05 Merging values fro~ Jake S~ FALSE 4 https://stackover~
## 2 2019-07-05 Change dataframe s~ D. Stu~ TRUE 40 https://stackover~
## 3 2018-06-05 if_else() `false` ~ stacki~ TRUE 3686 https://stackover~
## 4 2019-07-05 Aligning two dataf~ Nix TRUE 36 https://stackover~
## 5 2019-07-05 Transpose specific~ Pratik~ FALSE 25 https://stackover~
## 6 2018-10-07 dplyr-- how to do ~ Micah TRUE 39 https://stackover~
## 7 2019-07-05 Display by color g~ "thoma~ FALSE 25 https://stackover~
## 8 2019-07-05 How to use paste o~ Basant~ FALSE 20 https://stackover~
## 9 2019-07-05 How to define a fu~ Hamideh TRUE 50 https://stackover~
## 10 2019-07-04 R: how to use user~ Sangwo~ TRUE 27 https://stackover~
## # ... with 20 more rows
```
…
