…
```
# Read dataset
questions <- read_delim("QuizResponses_and_13.csv", delim = ",", n_max = 1, col_names = TRUE)
# Link choices to questions
question_choice <- gather(questions, "question", "choice") %>% 
 mutate(question = if_else(grepl("^X\\d", question), NA_character_, question)) %>% 
 fill(question) %>% 
 mutate(question_id = str_extract(question, "(?<=^Q)(\\d+)(?=:)") %>% as.numeric()) %>% 
 filter(choice != "Points") %>% 
 mutate(correct = grepl("✓", choice)) 
question_choice
```

```
## # A tibble: 87 x 4
## question choice question_id correct
## 
## 1 Q2: Which proposition(s) return(s… ✕ round(0.5) == … 2 FALSE 
## 2 Q2: Which proposition(s) return(s… ✓ round(0.5) == … 2 TRUE 
## 3 Q2: Which proposition(s) return(s… ✕ round(0.5) == … 2 FALSE 
## 4 Q2: Which proposition(s) return(s… ✕ round(0.5) == … 2 FALSE 
## 5 "Q3: What happens if:  dplyr <- \… ✕ Nothing 3 FALSE 
## 6 "Q3: What happens if:  dplyr <- \… ✓ it loads dplyr 3 TRUE 
## 7 "Q3: What happens if:  dplyr <- \… ✕ it loads data.… 3 FALSE 
## 8 "Q3: What happens if:  dplyr <- \… ✕ it returns an … 3 FALSE 
## 9 "Q3: What happens if:  dplyr <- \… ✕ it loads both … 3 FALSE 
## 10 Q4: What is the name of the Think… ✓ golem 4 TRUE 
## # … with 77 more rows
```
…
Let’s tidy the respondent answers dataset and join it with the table of questions and choices.

```
dataset <- read_delim("QuizResponses_and_13.csv", skip = 1, delim = ",")
all_answers <- dataset %>% 
 gather("choice", "answer", -X1) %>% 
 rename(ID = X1) %>% 
 left_join(question_choice, by = "choice") %>% 
 arrange(question_id, choice)
all_answers
```

```
## # A tibble: 28,000 x 6
## ID choice answer question question_id correct
## 
## 1 1.09e10 ✓ round(0.5) ==… Q2: Which proposi… 2 TRUE 
## 2 1.09e10 ✓ round(0.5) ==… Q2: Which proposi… 2 TRUE 
## 3 1.09e10 ✓ round(0.5) ==… Q2: Which proposi… 2 TRUE 
## 4 1.09e10 ✓ round(0.5) ==… Q2: Which proposi… 2 TRUE 
## 5 1.09e10 ✓ round(0.5) ==… Q2: Which proposi… 2 TRUE 
## 6 1.09e10 ✓ round(0.5) ==… Q2: Which proposi… 2 TRUE 
## 7 1.09e10 ✓ round(0.5) ==… Q2: Which proposi… 2 TRUE 
## 8 1.09e10 ✓ round(0.5) ==… 1 Q2: Which proposi… 2 TRUE 
## 9 1.09e10 ✓ round(0.5) ==… 1 Q2: Which proposi… 2 TRUE 
## 10 1.09e10 ✓ round(0.5) ==… Q2: Which proposi… 2 TRUE 
## # … with 27,990 more rows
```
…
