…
The data is in one-word-per-row format, and we can manipulate it with tidy tools like dplyr. For example, in the last chunk I used an `anti_join` to remove words such a “a”, “an” or “the”.

Then we can use `count` to find the most common words in all of Bojack Horseman episodes as a whole.

```
bojack_horseman_subs_tidy %>%
 count(word, sort = TRUE)
```

```
# A tibble: 10,845 x 2
 word n
 
 1 bojack 807
 2 yeah 695
 3 hey 567
 4 gonna 480
 5 time 446
 6 uh 380
 7 diane 345
 8 todd 329
 9 people 307
10 love 306
# … with 10,835 more rows
```
…
bojack_horseman_sentiment
```

```
# A tibble: 537 x 6
 episode_name season index negative positive sentiment
 
 1 S01 E01 - BoJack Horseman The … Seaso… 0 9 7 -2
 2 S01 E01 - BoJack Horseman The … Seaso… 1 4 3 -1
 3 S01 E01 - BoJack Horseman The … Seaso… 2 6 8 2
 4 S01 E01 - BoJack Horseman The … Seaso… 3 6 2 -4
 5 S01 E01 - BoJack Horseman The … Seaso… 4 12 8 -4
 6 S01 E01 - BoJack Horseman The … Seaso… 5 15 5 -10
 7 S01 E01 - BoJack Horseman The … Seaso… 6 13 5 -8
 8 S01 E01 - BoJack Horseman The … Seaso… 7 7 8 1
 9 S01 E01 - BoJack Horseman The … Seaso… 8 11 3 -8
10 S01 E01 - BoJack Horseman The … Seaso… 9 17 8 -9
# … with 527 more rows
```
…
Another function in widyr is `pairwise_count`, which counts pairs of items that occur together within a group. Let’s count the words that occur together in the lines of the first season.

```
bojack_horseman_words <- bojack_horseman_subs_tidy %>%
 filter(season == "S01")

word_cooccurences <- bojack_horseman_words %>%
 pairwise_count(word, linenumber, sort = TRUE)

word_cooccurences
```

```
# A tibble: 295,932 x 3
 item1 item2 n
 
 1 yeah bojack 57
 2 bojack yeah 57
 3 bojack hey 47
 4 hey bojack 47
 5 horseman bojack 44
 6 bojack horseman 44
 7 diane bojack 36
 8 bojack diane 36
 9 gonna bojack 35
10 bojack gonna 35
# … with 295,922 more rows
```
…
