…
det <- as_tibble(readRDS("check_details.rds")) # it's got tons of classes & I like readable data frame prints

nrow(distinct(det, Package))
## [1] 13094

```

OK, that number tracks with the count as of the last rsync. So, what do these WARN[ING]s look like?

```
filter(det, Status == "WARNING") %>% 
 select(Output)
## # A tibble: 2,299 x 1
## Output 
## 
## 1 "Found the following significant warnings:\n Warning: unable to r…
## 2 "Found the following significant warnings:\n Warning: unable to r…
## 3 "Found the following significant warnings:\n Warning: unable to r…
## 4 "Warning in parse(file = files, n = -1L) :\n invalid input found …
## 5 "Warning in parse(file = files, n = -1L) :\n invalid input found …
## 6 "Found the following significant warnings:\n Warning: unable to r…
## 7 "Found the following significant warnings:\n Warning: unable to r…
## 8 "Found the following significant warnings:\n Warning: unable to r…
## 9 "Found the following significant warnings:\n track_methods.cpp:22…
## 10 "Found the following significant warnings:\n Warning: unable to r…
## # … with 2,289 more rows

```

EEK! Well, actually not really. The checks are automated and we can use some substring machinations to try to get better groups:

```
filter(det, Status == "WARNING") %>% 
 mutate(bits = substring(trimws(Output), 1, 30)) %>% 
 count(bits, sort=TRUE) %>% 
 mutate(pct = n/sum(n))
## # A tibble: 29 x 3
## bits n pct
## 
## 1 Found the following significan 1316 0.572 
## 2 Error in re-building vignettes 702 0.305 
## 3 Error(s) in re-building vignet 90 0.0391 
## 4 Output from running autoreconf 56 0.0244 
## 5 Warning in parse(file = files, 37 0.0161 
## 6 Missing link or links in docum 15 0.00652
## 7 "network.dyadcount:\n function(" 10 0.00435
## 8 Found the following executable 9 0.00391
## 9 dyld: Library not loaded: /Bui 8 0.00348
## 10 Errors in running code in vign 8 0.00348
## # … with 19 more rows
…
```
filter(det, Status == "WARNING") %>% 
 filter(grepl("significant", Output, ignore.case = TRUE)) %>%
 mutate(flavor_flav = case_when(
 grepl("devel", Flavor) ~ "devel",
 grepl("oldrel", Flavor) ~ "oldrel",
 TRUE ~ "current"
 )) %>% 
 filter(flavor_flav != "devel") %>% 
 mutate(Output = gsub("Found the following significant warnings:\n ", "", trimws(Output))) %>% 
 mutate(bits = substring(trimws(Output), 1, 50)) %>% 
 count(bits, sort=TRUE) %>% 
 mutate(pct = n/sum(n))
## # A tibble: 110 x 3
## bits n pct
## 
## 1 "Warning: S3 methods '[.fun_list', '[.grouped_df', " 158 0.383 
## 2 Warning: 'rgl_init' failed, running with rgl.useNU 60 0.145 
## 3 "Found the following significant warnings:\n\n Warn… 9 0.0218 
## 4 Warning: package ‘dplyr’ was built under R version 9 0.0218 
## 5 "bgc_hmm.c:241:31: warning: ‘, ’ directive writing " 4 0.00969
## 6 driver.c:381:26: warning: cast from pointer to int 4 0.00969
## 7 hash.c:144:5: warning: ‘strncpy’ specified bound 2 4 0.00969
## 8 RngStream.c:347:4: warning: ‘strncpy’ specified bo 4 0.00969
## 9 Warning: ‘__var_1_mmb.offset’ is used uninitialize 4 0.00969
## 10 /home/hornik/tmp/R.check/r-patched-gcc/Work/build/ 3 0.00726
## # … with 100 more rows
…
 TRUE ~ "current"
 )) %>% 
 filter(!(flavor_flav %in% c("oldrel", "devel"))) %>% 
 filter(!grepl("solaris", Flavor)) %>% 
 mutate(Output = trimws(Output)) %>% 
 mutate(output_grp = case_when(
 grepl("^Running ", Output) ~ "Test/example run",
 grepl("^Installation fail", Output) ~ "Install failed",
 grepl("Package[s]* requir", Output) ~ "Missing package(s)",
 grepl("Errors in running code in vig", Output) ~ "Vignette issue",
 TRUE ~ Output
 )) %>% 
 filter(output_grp != "Missing package(s)") %>% 
 distinct(Package)
## # A tibble: 254 x 1
## Package 
## 
## 1 AER 
## 2 archdata 
## 3 atlantistools 
## 4 BAMBI 
## 5 biglmm 
## 6 biglm 
## 7 BIOMASS 
## 8 blockingChallenge
## 9 broom 
## 10 clusternomics 
## # … with 244 more rows
…
