…
#### Dummy Variables

```
bins <- rbin_manual(mbank, y, age, c(29, 31, 34, 36, 39, 42, 46, 51, 56))
rbin_create(mbank, age, bins)
```

```
## # A tibble: 4,521 x 26
## age job marital education default balance housing loan 
## 
## 1 34 technician married tertiary no 297 yes no 
## 2 49 services married secondary no 180 yes yes 
## 3 38 admin. single secondary no 262 no no 
## 4 47 services married secondary no 367 yes no 
## 5 51 self-employed single secondary no 1640 yes no 
## 6 40 unemployed married secondary no 3382 yes no 
## 7 58 retired married secondary no 1227 no no 
## 8 32 unemployed married primary no 309 yes no 
## 9 46 blue-collar married secondary no 922 yes no 
## 10 32 services married tertiary no 0 no no 
## contact day month duration campaign pdays previous poutcome y 
## 
## 1 cellular 29 jan 375 2 -1 0 unknown 0 
## 2 unknown 2 jun 392 3 -1 0 unknown 0 
## 3 cellular 3 feb 315 2 180 6 failure 1 
## 4 cellular 12 may 309 1 306 4 success 1 
## 5 unknown 15 may 67 4 -1 0 unknown 0 
## 6 unknown 14 may 125 1 -1 0 unknown 0 
## 7 cellular 14 aug 182 2 37 2 failure 0 
## 8 telephone 13 may 185 1 370 3 failure 0 
## 9 telephone 18 nov 296 2 -1 0 unknown 0 
## 10 cellular 21 nov 80 1 -1 0 unknown 0 
## `age_<_31` `age_<_34` `age_<_36` `age_<_39` `age_<_42` `age_<_46`
## 
## 1 0 0 1 0 0 0
## 2 0 0 0 0 0 0
## 3 0 0 0 1 0 0
## 4 0 0 0 0 0 0
## 5 0 0 0 0 0 0
## 6 0 0 0 0 1 0
## 7 0 0 0 0 0 0
## 8 0 1 0 0 0 0
## 9 0 0 0 0 0 0
## 10 0 1 0 0 0 0
## `age_<_51` `age_<_56` `age_>=_56`
## 
## 1 0 0 0
## 2 1 0 0
## 3 0 0 0
## 4 1 0 0
## 5 0 1 0
## 6 0 0 0
## 7 0 0 1
## 8 0 0 0
## 9 1 0 0
## 10 0 0 0
## # ... with 4,511 more rows
```
…
#### Create Bins

```
upper <- c("secondary", "tertiary")
out <- rbin_factor_combine(mbank, education, upper, "upper")
rbin_factor_create(out, education)
```

```
## # A tibble: 4,521 x 19
## age job marital default balance housing loan contact 
## 
## 1 34 technician married no 297 yes no cellular 
## 2 49 services married no 180 yes yes unknown 
## 3 38 admin. single no 262 no no cellular 
## 4 47 services married no 367 yes no cellular 
## 5 51 self-employed single no 1640 yes no unknown 
## 6 40 unemployed married no 3382 yes no unknown 
## 7 58 retired married no 1227 no no cellular 
## 8 32 unemployed married no 309 yes no telephone
## 9 46 blue-collar married no 922 yes no telephone
## 10 32 services married no 0 no no cellular 
## day month duration campaign pdays previous poutcome y education
## 
## 1 29 jan 375 2 -1 0 unknown 0 upper 
## 2 2 jun 392 3 -1 0 unknown 0 upper 
## 3 3 feb 315 2 180 6 failure 1 upper 
## 4 12 may 309 1 306 4 success 1 upper 
## 5 15 may 67 4 -1 0 unknown 0 upper 
## 6 14 may 125 1 -1 0 unknown 0 upper 
## 7 14 aug 182 2 37 2 failure 0 upper 
## 8 13 may 185 1 370 3 failure 0 primary 
## 9 18 nov 296 2 -1 0 unknown 0 upper 
## 10 21 nov 80 1 -1 0 unknown 0 upper 
## education_unknown education_upper
## 
## 1 0 1
## 2 0 1
## 3 0 1
## 4 0 1
## 5 0 1
## 6 0 1
## 7 0 1
## 8 0 0
## 9 0 1
## 10 0 1
## # ... with 4,511 more rows
```
…
