…
```

The **landscapemetrics** package has a function designed for calculations of landscape metrics for a given buffer.It is called `sample_lsm()` and it expects, at least three input arguments – a raster, a vector (points), and a buffer size. As a default, it calculates all of the available metrics in a square buffer, where buffer size is the side-length in map units (e.g. meters).

```
square_all = sample_lsm(lc,
 points = sample_points,
 size = 3000)
square_all

```

```
## # A tibble: 1,282 x 8
## layer level class id metric value plot_id percentage_inside
## 
## 1 1 class 11 NA ai 92.1 1 109.
## 2 1 class 100 NA ai 100 1 109.
## 3 1 class 122 NA ai NA 1 109.
## 4 1 class 130 NA ai 50 1 109.
## 5 1 class 150 NA ai 71.1 1 109.
## 6 1 class 11 NA area_cv NA 1 109.
## 7 1 class 100 NA area_cv NA 1 109.
## 8 1 class 122 NA area_cv NA 1 109.
## 9 1 class 130 NA area_cv 33.3 1 109.
## 10 1 class 150 NA area_cv 119. 1 109.
## # … with 1,272 more rows
…
