…
```

The validator only noted that a soon-to-be deprecated directive is being used (but thatâ€™s just informational and perfectly fine until CSP v3 is out of Draft and browsers support it) and the validation output has positional values for where the violations occur (which shows the benefits of using a true parser vs string splitter).

The custom print method for these `csp` objects puts each directive on a separate line and has left the resource values intact. As noted, itâ€™s ugly and untidy so letâ€™s take care of that:

```
(csp_df <- as.data.frame(dc_csp))
## # A tibble: 111 x 3
## directive value origin 
## 
## 1 default-src 'self' https://www.datacamp.com/
## 2 default-src *.datacamp.com https://www.datacamp.com/
## 3 default-src *.datacamp-staging.com https://www.datacamp.com/
## 4 base-uri 'self' https://www.datacamp.com/
## 5 connect-src 'self' https://www.datacamp.com/
## 6 connect-src *.datacamp.com https://www.datacamp.com/
## 7 connect-src *.datacamp-staging.com https://www.datacamp.com/
## 8 connect-src https://com-datacamp.mini.snplow.net https://www.datacamp.com/
## 9 connect-src https://www2.profitwell.com https://www.datacamp.com/
## 10 connect-src https://www.facebook.com https://www.datacamp.com/
## # â€¦ with 101 more rows
…
