…
First, I’ll read in the data and fix up a few spelling errors from the original dataset.

```
library(tidyverse)

emotion_raw <- read_csv("https://osf.io/e7uab/download") %>%
 rename(Offense = Ofense,
 Embarrassment = Embarassment)

emotion_raw
```

```
## # A tibble: 69,544 x 21
## id Hours Day Pride Love Hope Gratitude Joy Satisfaction Awe
## 
## 1 1 1 3 0 0 0 0 0 0 0
## 2 1 14 1 0 0 0 0 0 0 0
## 3 1 14 2 0 0 0 0 0 0 0
## 4 1 14 4 0 0 0 0 0 0 0
## 5 1 15 3 0 0 0 0 0 0 0
## 6 1 15 3 0 0 0 0 0 0 0
## 7 1 19 1 0 0 0 0 0 0 0
## 8 8 8 5 0 0 0 0 1 0 0
## 9 8 9 2 0 0 0 0 1 0 0
## 10 8 10 7 0 0 0 0 0 0 0
## # ... with 69,534 more rows, and 11 more variables: Amusement ,
## # Alertness , Anxiety , Disdain , Offense ,
## # Guilt , Disgust , Fear , Embarrassment ,
## # Sadness , Anger 
```
…
I can use the function *gather* to turn the data into long format. By filtering for values of 1, I remove all the zeros from the sparse matrix and I’m left with a column that includes the emotion that was experienced at the time of reporting.

```
emotion_long <- emotion_raw %>%
 gather(emotion_type, value, Pride:Anger) %>%
 arrange(id, Day) %>%
 filter(value == 1) %>%
 select(-value)

emotion_long
```

```
## # A tibble: 187,426 x 4
## id Hours Day emotion_type 
## 
## 1 1 19 1 Offense 
## 2 1 19 1 Sadness 
## 3 1 14 2 Disgust 
## 4 1 15 3 Alertness 
## 5 1 15 3 Anxiety 
## 6 1 15 3 Embarrassment
## 7 1 15 3 Sadness 
## 8 1 14 4 Alertness 
## 9 1 14 4 Embarrassment
## 10 8 9 2 Joy 
## # ... with 187,416 more rows
```
Still, there are no edges here – no link between one emotion and the next. Because the data is arranged so that each subsequent row is the next emotion, I can create a new variable, second_emotion, that is the *lead* of the emotion in that row. Then, I make sure to remove the last row from each participant id (otherwise there would be a relationship between Participant #1’s last emotion and Participant #2’s first emotion).

```
emotion_edges <- emotion_long %>%
 mutate(second_emotion = lead(emotion_type)) %>%
 rename(first_emotion = emotion_type) %>%
 select(id, Day, Hours, first_emotion, second_emotion) %>%
 group_by(id) %>%
 slice(-length(id))

emotion_edges
```

```
## # A tibble: 175,480 x 5
## # Groups: id [11,332]
## id Day Hours first_emotion second_emotion
## 
## 1 1 1 19 Offense Sadness 
## 2 1 1 19 Sadness Disgust 
## 3 1 2 14 Disgust Alertness 
## 4 1 3 15 Alertness Anxiety 
## 5 1 3 15 Anxiety Embarrassment 
## 6 1 3 15 Embarrassment Sadness 
## 7 1 3 15 Sadness Alertness 
## 8 1 4 14 Alertness Embarrassment 
## 9 8 2 9 Joy Alertness 
## 10 8 2 9 Alertness Alertness 
## # ... with 175,470 more rows
```
…
We now have an object containing our nodes and an object containing our edges. Now it’s a matter of weighting (counting) the relationships between the emotions.

```
emotion_network <- emotion_edges %>%
 group_by(first_emotion, second_emotion) %>%
 summarize(weight = n()) %>%
 ungroup() %>%
 select(first_emotion, second_emotion, weight)

emotion_network
```

```
## # A tibble: 315 x 3
## first_emotion second_emotion weight
## 
## 1 Alertness Alertness 6191
## 2 Alertness Amusement 97
## 3 Alertness Anger 214
## 4 Alertness Anxiety 4784
## 5 Alertness Awe 14
## 6 Alertness Disdain 82
## 7 Alertness Disgust 544
## 8 Alertness Embarrassment 208
## 9 Alertness Fear 109
## 10 Alertness Gratitude 70
## # ... with 305 more rows
```
…
edges <- edges %>%
 left_join(emotion_nodes, by = c("second_emotion" = "label")) %>%
 rename(to = id) %>%
 select(from, to, weight) %>%
 mutate(weight = ifelse(weight > 4500, 4500, weight))

edges
```

```
## # A tibble: 315 x 3
## from to weight
## 
## 1 1 1 4500
## 2 1 2 97
## 3 1 3 214
## 4 1 4 4500
## 5 1 5 14
## 6 1 6 82
## 7 1 7 544
## 8 1 8 208
## 9 1 9 109
## 10 1 10 70
## # ... with 305 more rows
```
…
