…
routes <- small_trains %>%
 group_by(departure_station, arrival_station) %>%
 summarise(journey_time = mean(journey_time_avg)) %>%
 ungroup() %>%
 mutate(from = departure_station, 
 to = arrival_station) %>%
 select(from, to, journey_time)

routes
```

```
## # A tibble: 130 x 3
## from to journey_time
## 
## 1 AIX EN PROVENCE TGV PARIS LYON 186. 
## 2 ANGERS SAINT LAUD PARIS MONTPARNASSE 97.5
## 3 ANGOULEME PARIS MONTPARNASSE 146. 
## 4 ANNECY PARIS LYON 225. 
## 5 ARRAS PARIS NORD 52.8
## 6 AVIGNON TGV PARIS LYON 161. 
## 7 BARCELONA PARIS LYON 358. 
## 8 BELLEGARDE (AIN) PARIS LYON 163. 
## 9 BESANCON FRANCHE COMTE TGV PARIS LYON 131. 
## 10 BORDEAUX ST JEAN PARIS MONTPARNASSE 186. 
## # … with 120 more rows
```
…
