…
which obviously cannot be converted by `{lubridate}` without further manipulation. I ignore these cases forsimplicity’s sake.

Let’s take a look at the data now:

```
independence
```

```
## # A tibble: 54 x 6
## country colonial_name colonial_power independence_da… first_head_of_s…
## 
## 1 Liberia Liberia United States 1847-07-26 Joseph Jenkins …
## 2 South … Cape Colony … United Kingdom 1910-05-31 Louis Botha 
## 3 Egypt Sultanate of… United Kingdom 1922-02-28 Fuad I 
## 4 Eritrea Italian Erit… Italy 1947-02-10 Haile Selassie 
## 5 Libya British Mili… United Kingdo… 1951-12-24 Idris 
## 6 Sudan Anglo-Egypti… United Kingdo… 1956-01-01 Ismail al-Azhari
## 7 Tunisia French Prote… France 1956-03-20 Muhammad VIII a…
## 8 Morocco French Prote… France Spain NA Mohammed V 
## 9 Ghana Gold Coast United Kingdom 1957-03-06 Kwame Nkrumah 
## 10 Guinea French West … France 1958-10-02 Ahmed Sékou Tou…
## # ... with 44 more rows, and 1 more variable:
## # independence_won_through 
```
…
```
## [1] "Libya"
```

Seems like Libya was the only one! You can also operate on dates. For instance, let’s compute the difference betweentwo dates, using the `interval()` column:

```
independence %>%
 mutate(today = lubridate::today()) %>%
 mutate(independent_since = interval(independence_date, today)) %>%
 select(country, independent_since)
```

```
## # A tibble: 54 x 2
## country independent_since 
## 
## 1 Liberia 1847-07-26 UTC--2018-12-15 UTC
## 2 South Africa 1910-05-31 UTC--2018-12-15 UTC
## 3 Egypt 1922-02-28 UTC--2018-12-15 UTC
## 4 Eritrea 1947-02-10 UTC--2018-12-15 UTC
## 5 Libya 1951-12-24 UTC--2018-12-15 UTC
## 6 Sudan 1956-01-01 UTC--2018-12-15 UTC
## 7 Tunisia 1956-03-20 UTC--2018-12-15 UTC
## 8 Morocco NA--NA 
## 9 Ghana 1957-03-06 UTC--2018-12-15 UTC
## 10 Guinea 1958-10-02 UTC--2018-12-15 UTC
## # ... with 44 more rows
```

The `independent_since` column now contains an *interval* object that we can convert to years:

```
independence %>%
 mutate(today = lubridate::today()) %>%
 mutate(independent_since = interval(independence_date, today)) %>%
 select(country, independent_since) %>%
 mutate(years_independent = as.numeric(independent_since, "years"))
```

```
## # A tibble: 54 x 3
## country independent_since years_independent
## 
## 1 Liberia 1847-07-26 UTC--2018-12-15 UTC 171. 
## 2 South Africa 1910-05-31 UTC--2018-12-15 UTC 109. 
## 3 Egypt 1922-02-28 UTC--2018-12-15 UTC 96.8
## 4 Eritrea 1947-02-10 UTC--2018-12-15 UTC 71.8
## 5 Libya 1951-12-24 UTC--2018-12-15 UTC 67.0
## 6 Sudan 1956-01-01 UTC--2018-12-15 UTC 63.0
## 7 Tunisia 1956-03-20 UTC--2018-12-15 UTC 62.7
## 8 Morocco NA--NA NA 
## 9 Ghana 1957-03-06 UTC--2018-12-15 UTC 61.8
## 10 Guinea 1958-10-02 UTC--2018-12-15 UTC 60.2
## # ... with 44 more rows
```
…
