…
```
(failed <- sum(map_lgl(recent$cert, ~is.null(.x$result))))
## [1] 25

(failed / nrow(recent))
## [1] 0.06527415

```

As noted in the introduction to the blog, when attackers want to use SSL for the lock icon ruse they can either try to piggyback off of legitimate domains or rely on Letâ€™s Encrypt to help them commit crimes. Letâ€™s see what the top pâ€�apexâ€� domains](https://help.github.com/articles/about-supported-custom-domains/#apex-domains) were in use in the past week:

```
count(recent, apex, sort = TRUE)
## # A tibble: 255 x 2
## apex n
## 
## 1 000webhostapp.com 42
## 2 google.com 17
## 3 umbler.net 8
## 4 sharepoint.com 6
## 5 com-fl.cz 5
## 6 lbcpzonasegurabeta-viabcp.com 4
## 7 windows.net 4
## 8 ashaaudio.net 3
## 9 brijprints.com 3
## 10 portaleisp.com 3
## # ... with 245 more rows
…
